[
    {
        "id": 1000,
        "name": "Uranus",
        "englishName": "Uranus",
        "isPlanet": true,
        "moons": [
            {
                "moon": "Ariel",
                "rel": "https://api.le-systeme-solaire.net/rest/bodies/ariel"
            },
            {
                "moon": "Umbriel",
                "rel": "https://api.le-systeme-solaire.net/rest/bodies/umbriel"
            },
            {
                "moon": "Titania",
                "rel": "https://api.le-systeme-solaire.net/rest/bodies/titania"
            },
            {
                "moon": "Ob\u00e9ron",
                "rel": "https://api.le-systeme-solaire.net/rest/bodies/oberon"
            },
            {
                "moon": "Miranda",
                "rel": "https://api.le-systeme-solaire.net/rest/bodies/miranda"
            },
            {
                "moon": "Cord\u00e9lia",
                "rel": "https://api.le-systeme-solaire.net/rest/bodies/cordelia"
            },
            {
                "moon": "Oph\u00e9lie",
                "rel": "https://api.le-systeme-solaire.net/rest/bodies/ophelia"
            },
            {
                "moon": "Bianca",
                "rel": "https://api.le-systeme-solaire.net/rest/bodies/bianca"
            },
            {
                "moon": "Cressida",
                "rel": "https://api.le-systeme-solaire.net/rest/bodies/cressida"
            },
            {
                "moon": "Desd\u00e9mone",
                "rel": "https://api.le-systeme-solaire.net/rest/bodies/desdemona"
            },
            {
                "moon": "Juliette",
                "rel": "https://api.le-systeme-solaire.net/rest/bodies/juliet"
            },
            {
                "moon": "Portia",
                "rel": "https://api.le-systeme-solaire.net/rest/bodies/portia"
            },
            {
                "moon": "Rosalinde",
                "rel": "https://api.le-systeme-solaire.net/rest/bodies/rosalind"
            },
            {
                "moon": "Belinda",
                "rel": "https://api.le-systeme-solaire.net/rest/bodies/belinda"
            },
            {
                "moon": "Puck",
                "rel": "https://api.le-systeme-solaire.net/rest/bodies/puck"
            },
            {
                "moon": "Caliban",
                "rel": "https://api.le-systeme-solaire.net/rest/bodies/caliban"
            },
            {
                "moon": "Sycorax",
                "rel": "https://api.le-systeme-solaire.net/rest/bodies/sycorax"
            },
            {
                "moon": "Prospero",
                "rel": "https://api.le-systeme-solaire.net/rest/bodies/prospero"
            },
            {
                "moon": "Setebos",
                "rel": "https://api.le-systeme-solaire.net/rest/bodies/setebos"
            },
            {
                "moon": "Stephano",
                "rel": "https://api.le-systeme-solaire.net/rest/bodies/stephano"
            },
            {
                "moon": "Trinculo",
                "rel": "https://api.le-systeme-solaire.net/rest/bodies/trinculo"
            },
            {
                "moon": "Francisco",
                "rel": "https://api.le-systeme-solaire.net/rest/bodies/francisco"
            },
            {
                "moon": "Margaret",
                "rel": "https://api.le-systeme-solaire.net/rest/bodies/margaret"
            },
            {
                "moon": "Ferdinand",
                "rel": "https://api.le-systeme-solaire.net/rest/bodies/ferdinand"
            },
            {
                "moon": "Perdita",
                "rel": "https://api.le-systeme-solaire.net/rest/bodies/perdita"
            },
            {
                "moon": "Mab",
                "rel": "https://api.le-systeme-solaire.net/rest/bodies/mab"
            },
            {
                "moon": "Cupid",
                "rel": "https://api.le-systeme-solaire.net/rest/bodies/cupid"
            }
        ],
        "semimajorAxis": 2870658186,
        "perihelion": 2734998229,
        "aphelion": 3006318143,
        "eccentricity": 0.0457,
        "inclination": 0.772,
        "mass": {
            "massValue": 8.68127,
            "massExponent": 25
        },
        "vol": {
            "volValue": 6.833,
            "volExponent": 13
        },
        "density": 1.27,
        "gravity": 8.87,
        "escape": 21380.0,
        "meanRadius": 25362.0,
        "equaRadius": 25559.0,
        "polarRadius": 24973.0,
        "flattening": 0.02293,
        "dimension": "",
        "sideralOrbit": 30685.4,
        "sideralRotation": -17.24,
        "aroundPlanet": null,
        "discoveredBy": "William Herschel",
        "discoveryDate": "13/03/1781",
        "alternativeName": "",
        "axialTilt": 97.77,
        "avgTemp": 76,
        "mainAnomaly": 142.2386,
        "argPeriapsis": 98.862,
        "longAscNode": 73.967,
        "bodyType": "Planet",
        "rel": "https://api.le-systeme-solaire.net/rest/bodies/uranus",
        "image": "https://upload.wikimedia.org/wikipedia/commons/c/c9/Uranus_as_seen_by_NASA%27s_Voyager_2_%28remastered%29_-_JPEG_converted.jpg",
        "s_1": "18749",
        "so_1": 97.07,
        "s_2": "44517",
        "so_2": 103.9,
        "s_3": "32478",
        "so_3": 1436.03,
        "so_diff_1": 316.1162,
        "so_diff_2": 295.3359,
        "so_diff_3": 21.3682
    },
    {
        "id": 1001,
        "name": "Neptune",
        "englishName": "Neptune",
        "isPlanet": true,
        "moons": [
            {
                "moon": "Triton",
                "rel": "https://api.le-systeme-solaire.net/rest/bodies/triton"
            },
            {
                "moon": "N\u00e9re\u00efde",
                "rel": "https://api.le-systeme-solaire.net/rest/bodies/nereide"
            },
            {
                "moon": "Na\u00efade",
                "rel": "https://api.le-systeme-solaire.net/rest/bodies/naiade"
            },
            {
                "moon": "Thalassa",
                "rel": "https://api.le-systeme-solaire.net/rest/bodies/thalassa"
            },
            {
                "moon": "Despina",
                "rel": "https://api.le-systeme-solaire.net/rest/bodies/despina"
            },
            {
                "moon": "Galat\u00e9e",
                "rel": "https://api.le-systeme-solaire.net/rest/bodies/galatee"
            },
            {
                "moon": "Larissa",
                "rel": "https://api.le-systeme-solaire.net/rest/bodies/larissa"
            },
            {
                "moon": "Prot\u00e9e",
                "rel": "https://api.le-systeme-solaire.net/rest/bodies/protee"
            },
            {
                "moon": "Halim\u00e8de",
                "rel": "https://api.le-systeme-solaire.net/rest/bodies/halimede"
            },
            {
                "moon": "Psamath\u00e9e",
                "rel": "https://api.le-systeme-solaire.net/rest/bodies/psamathee"
            },
            {
                "moon": "Sao",
                "rel": "https://api.le-systeme-solaire.net/rest/bodies/sao"
            },
            {
                "moon": "Laom\u00e9die",
                "rel": "https://api.le-systeme-solaire.net/rest/bodies/laomedie"
            },
            {
                "moon": "N\u00e9so",
                "rel": "https://api.le-systeme-solaire.net/rest/bodies/neso"
            },
            {
                "moon": "Hippocampe",
                "rel": "https://api.le-systeme-solaire.net/rest/bodies/hippocampe"
            }
        ],
        "semimajorAxis": 4498396441,
        "perihelion": 4459753056,
        "aphelion": 4537039826,
        "eccentricity": 0.0113,
        "inclination": 1.769,
        "mass": {
            "massValue": 1.02413,
            "massExponent": 26
        },
        "vol": {
            "volValue": 6.254,
            "volExponent": 13
        },
        "density": 1.638,
        "gravity": 11.15,
        "escape": 23560.0,
        "meanRadius": 24622.0,
        "equaRadius": 24764.0,
        "polarRadius": 24341.0,
        "flattening": 0.01708,
        "dimension": "",
        "sideralOrbit": 60189.0,
        "sideralRotation": 16.11,
        "aroundPlanet": null,
        "discoveredBy": "Urbain Le Verrier, John Couch Adams, Johann Galle",
        "discoveryDate": "23/09/1846",
        "alternativeName": "",
        "axialTilt": 28.3,
        "avgTemp": 55,
        "mainAnomaly": 256.228,
        "argPeriapsis": 256.932,
        "longAscNode": 131.823,
        "bodyType": "Planet",
        "rel": "https://api.le-systeme-solaire.net/rest/bodies/neptune",
        "image": "https://upload.wikimedia.org/wikipedia/commons/6/63/Neptune_-_Voyager_2_%2829347980845%29_flatten_crop.jpg",
        "s_1": "16792",
        "so_1": 97.07,
        "s_2": "25419",
        "so_2": 100.43,
        "s_3": "27811",
        "so_3": 1436.09,
        "so_diff_1": 620.0577,
        "so_diff_2": 599.313,
        "so_diff_3": 41.9117
    },
    {
        "id": 1002,
        "name": "Jupiter",
        "englishName": "Jupiter",
        "isPlanet": true,
        "moons": [
            {
                "moon": "Io",
                "rel": "https://api.le-systeme-solaire.net/rest/bodies/io"
            },
            {
                "moon": "Europe",
                "rel": "https://api.le-systeme-solaire.net/rest/bodies/europe"
            },
            {
                "moon": "Ganym\u00e8de",
                "rel": "https://api.le-systeme-solaire.net/rest/bodies/ganymede"
            },
            {
                "moon": "Callisto",
                "rel": "https://api.le-systeme-solaire.net/rest/bodies/callisto"
            },
            {
                "moon": "Amalth\u00e9e",
                "rel": "https://api.le-systeme-solaire.net/rest/bodies/amalthee"
            },
            {
                "moon": "Himalia",
                "rel": "https://api.le-systeme-solaire.net/rest/bodies/himalia"
            },
            {
                "moon": "\u00c9lara",
                "rel": "https://api.le-systeme-solaire.net/rest/bodies/elara"
            },
            {
                "moon": "Pasipha\u00e9",
                "rel": "https://api.le-systeme-solaire.net/rest/bodies/pasiphae"
            },
            {
                "moon": "Sinop\u00e9",
                "rel": "https://api.le-systeme-solaire.net/rest/bodies/sinope"
            },
            {
                "moon": "Lysith\u00e9a",
                "rel": "https://api.le-systeme-solaire.net/rest/bodies/lysithea"
            },
            {
                "moon": "Carm\u00e9",
                "rel": "https://api.le-systeme-solaire.net/rest/bodies/carme"
            },
            {
                "moon": "Anank\u00e9",
                "rel": "https://api.le-systeme-solaire.net/rest/bodies/ananke"
            },
            {
                "moon": "L\u00e9da",
                "rel": "https://api.le-systeme-solaire.net/rest/bodies/leda"
            },
            {
                "moon": "Th\u00e9b\u00e9",
                "rel": "https://api.le-systeme-solaire.net/rest/bodies/thebe"
            },
            {
                "moon": "Adrast\u00e9e",
                "rel": "https://api.le-systeme-solaire.net/rest/bodies/adrastee"
            },
            {
                "moon": "M\u00e9tis",
                "rel": "https://api.le-systeme-solaire.net/rest/bodies/metis"
            },
            {
                "moon": "Callirrho\u00e9",
                "rel": "https://api.le-systeme-solaire.net/rest/bodies/callirrhoe"
            },
            {
                "moon": "Th\u00e9misto",
                "rel": "https://api.le-systeme-solaire.net/rest/bodies/themisto"
            },
            {
                "moon": "M\u00e9gaclit\u00e9",
                "rel": "https://api.le-systeme-solaire.net/rest/bodies/megaclite"
            },
            {
                "moon": "Tayg\u00e9t\u00e9",
                "rel": "https://api.le-systeme-solaire.net/rest/bodies/taygete"
            },
            {
                "moon": "Chald\u00e9n\u00e9",
                "rel": "https://api.le-systeme-solaire.net/rest/bodies/chaldene"
            },
            {
                "moon": "Harpalyk\u00e9",
                "rel": "https://api.le-systeme-solaire.net/rest/bodies/harpalyke"
            },
            {
                "moon": "Kalyk\u00e9",
                "rel": "https://api.le-systeme-solaire.net/rest/bodies/kalyke"
            },
            {
                "moon": "Iocast\u00e9",
                "rel": "https://api.le-systeme-solaire.net/rest/bodies/iocaste"
            },
            {
                "moon": "Erinom\u00e9",
                "rel": "https://api.le-systeme-solaire.net/rest/bodies/erinome"
            },
            {
                "moon": "Isono\u00e9",
                "rel": "https://api.le-systeme-solaire.net/rest/bodies/isonoe"
            },
            {
                "moon": "Praxidyk\u00e9",
                "rel": "https://api.le-systeme-solaire.net/rest/bodies/praxidike"
            },
            {
                "moon": "Autono\u00e9",
                "rel": "https://api.le-systeme-solaire.net/rest/bodies/autonoe"
            },
            {
                "moon": "Thyon\u00e9",
                "rel": "https://api.le-systeme-solaire.net/rest/bodies/thyone"
            },
            {
                "moon": "Hermipp\u00e9",
                "rel": "https://api.le-systeme-solaire.net/rest/bodies/hermippe"
            },
            {
                "moon": "Aitn\u00e9",
                "rel": "https://api.le-systeme-solaire.net/rest/bodies/aitne"
            },
            {
                "moon": "Eurydom\u00e9",
                "rel": "https://api.le-systeme-solaire.net/rest/bodies/eurydome"
            },
            {
                "moon": "Euanth\u00e9",
                "rel": "https://api.le-systeme-solaire.net/rest/bodies/euanthe"
            },
            {
                "moon": "Euporie",
                "rel": "https://api.le-systeme-solaire.net/rest/bodies/euporie"
            },
            {
                "moon": "Orthosie",
                "rel": "https://api.le-systeme-solaire.net/rest/bodies/orthosie"
            },
            {
                "moon": "Spond\u00e9",
                "rel": "https://api.le-systeme-solaire.net/rest/bodies/sponde"
            },
            {
                "moon": "Cal\u00e9",
                "rel": "https://api.le-systeme-solaire.net/rest/bodies/cale"
            },
            {
                "moon": "Pasith\u00e9e",
                "rel": "https://api.le-systeme-solaire.net/rest/bodies/pasithee"
            },
            {
                "moon": "H\u00e9g\u00e9mone",
                "rel": "https://api.le-systeme-solaire.net/rest/bodies/hegemone"
            },
            {
                "moon": "Mn\u00e9m\u00e9",
                "rel": "https://api.le-systeme-solaire.net/rest/bodies/mneme"
            },
            {
                "moon": "Aoed\u00e9",
                "rel": "https://api.le-systeme-solaire.net/rest/bodies/aoede"
            },
            {
                "moon": "Thelxino\u00e9",
                "rel": "https://api.le-systeme-solaire.net/rest/bodies/thelxinoe"
            },
            {
                "moon": "Arch\u00e9",
                "rel": "https://api.le-systeme-solaire.net/rest/bodies/arche"
            },
            {
                "moon": "Callichore",
                "rel": "https://api.le-systeme-solaire.net/rest/bodies/callichore"
            },
            {
                "moon": "H\u00e9lic\u00e9",
                "rel": "https://api.le-systeme-solaire.net/rest/bodies/helice"
            },
            {
                "moon": "Carpo",
                "rel": "https://api.le-systeme-solaire.net/rest/bodies/carpo"
            },
            {
                "moon": "Euk\u00e9lad\u00e9",
                "rel": "https://api.le-systeme-solaire.net/rest/bodies/eukelade"
            },
            {
                "moon": "Cyll\u00e8ne",
                "rel": "https://api.le-systeme-solaire.net/rest/bodies/cyllene"
            },
            {
                "moon": "Cor\u00e9",
                "rel": "https://api.le-systeme-solaire.net/rest/bodies/core"
            },
            {
                "moon": "Hers\u00e9",
                "rel": "https://api.le-systeme-solaire.net/rest/bodies/herse"
            },
            {
                "moon": "S/2003 J 2",
                "rel": "https://api.le-systeme-solaire.net/rest/bodies/s2003j2"
            },
            {
                "moon": "Euph\u00e9m\u00e9",
                "rel": "https://api.le-systeme-solaire.net/rest/bodies/eupheme"
            },
            {
                "moon": "S/2003 J 4",
                "rel": "https://api.le-systeme-solaire.net/rest/bodies/s2003j4"
            },
            {
                "moon": "Eir\u00e9n\u00e9",
                "rel": "https://api.le-systeme-solaire.net/rest/bodies/eirene"
            },
            {
                "moon": "S/2003 J 9",
                "rel": "https://api.le-systeme-solaire.net/rest/bodies/s2003j9"
            },
            {
                "moon": "S/2003 J 10",
                "rel": "https://api.le-systeme-solaire.net/rest/bodies/s2003j10"
            },
            {
                "moon": "S/2003 J 12",
                "rel": "https://api.le-systeme-solaire.net/rest/bodies/s2003j12"
            },
            {
                "moon": "Philophrosyne",
                "rel": "https://api.le-systeme-solaire.net/rest/bodies/philophrosyne"
            },
            {
                "moon": "S/2003 J 16",
                "rel": "https://api.le-systeme-solaire.net/rest/bodies/s2003j16"
            },
            {
                "moon": "S/2003 J 18",
                "rel": "https://api.le-systeme-solaire.net/rest/bodies/s2003j18"
            },
            {
                "moon": "S/2003 J 19",
                "rel": "https://api.le-systeme-solaire.net/rest/bodies/s2003j19"
            },
            {
                "moon": "S/2003 J 23",
                "rel": "https://api.le-systeme-solaire.net/rest/bodies/s2003j23"
            },
            {
                "moon": "Dia",
                "rel": "https://api.le-systeme-solaire.net/rest/bodies/dia"
            },
            {
                "moon": "S/2010 J 1",
                "rel": "https://api.le-systeme-solaire.net/rest/bodies/s2010j1"
            },
            {
                "moon": "S/2010 J 2",
                "rel": "https://api.le-systeme-solaire.net/rest/bodies/s2010j2"
            },
            {
                "moon": "S/2011 J 1",
                "rel": "https://api.le-systeme-solaire.net/rest/bodies/s2011j1"
            },
            {
                "moon": "S/2011 J 2",
                "rel": "https://api.le-systeme-solaire.net/rest/bodies/s2011j2"
            },
            {
                "moon": "S/2017 J 1",
                "rel": "https://api.le-systeme-solaire.net/rest/bodies/s2017j1"
            },
            {
                "moon": "S/2016 J 1",
                "rel": "https://api.le-systeme-solaire.net/rest/bodies/s2016j1"
            },
            {
                "moon": "Val\u00e9tudo",
                "rel": "https://api.le-systeme-solaire.net/rest/bodies/valetudo"
            },
            {
                "moon": "S/2017 J 2",
                "rel": "https://api.le-systeme-solaire.net/rest/bodies/s2017j2"
            },
            {
                "moon": "S/2017 J 3",
                "rel": "https://api.le-systeme-solaire.net/rest/bodies/s2017j3"
            },
            {
                "moon": "Pandia",
                "rel": "https://api.le-systeme-solaire.net/rest/bodies/pandia"
            },
            {
                "moon": "S/2017 J 5",
                "rel": "https://api.le-systeme-solaire.net/rest/bodies/s2017j5"
            },
            {
                "moon": "S/2017 J 6",
                "rel": "https://api.le-systeme-solaire.net/rest/bodies/s2017j6"
            },
            {
                "moon": "S/2017 J 7",
                "rel": "https://api.le-systeme-solaire.net/rest/bodies/s2017j7"
            },
            {
                "moon": "S/2017 J 8",
                "rel": "https://api.le-systeme-solaire.net/rest/bodies/s2017j8"
            },
            {
                "moon": "S/2017 J 9",
                "rel": "https://api.le-systeme-solaire.net/rest/bodies/s2017j9"
            },
            {
                "moon": "Ersa",
                "rel": "https://api.le-systeme-solaire.net/rest/bodies/ersa"
            },
            {
                "moon": "S/2003 J 24",
                "rel": "https://api.le-systeme-solaire.net/rest/bodies/s2003j24"
            }
        ],
        "semimajorAxis": 778340821,
        "perihelion": 740379835,
        "aphelion": 816620000,
        "eccentricity": 0.0489,
        "inclination": 1.304,
        "mass": {
            "massValue": 1.89819,
            "massExponent": 27
        },
        "vol": {
            "volValue": 1.43128,
            "volExponent": 15
        },
        "density": 1.3262,
        "gravity": 24.79,
        "escape": 60200.0,
        "meanRadius": 69911.0,
        "equaRadius": 71492.0,
        "polarRadius": 66854.0,
        "flattening": 0.06487,
        "dimension": "",
        "sideralOrbit": 4332.589,
        "sideralRotation": 9.925,
        "aroundPlanet": null,
        "discoveredBy": "",
        "discoveryDate": "",
        "alternativeName": "",
        "axialTilt": 3.12,
        "avgTemp": 165,
        "mainAnomaly": 20.02,
        "argPeriapsis": 273.442,
        "longAscNode": 100.398,
        "bodyType": "Planet",
        "rel": "https://api.le-systeme-solaire.net/rest/bodies/jupiter",
        "image": "https://upload.wikimedia.org/wikipedia/commons/c/c1/Jupiter_New_Horizons.jpg",
        "s_1": "04814",
        "so_1": 93.82,
        "s_2": "26824",
        "so_2": 1436.15,
        "s_3": "27606",
        "so_3": 97.77,
        "so_diff_1": 46.1798,
        "so_diff_2": 3.0168,
        "so_diff_3": 44.3141
    },
    {
        "id": 1003,
        "name": "Mars",
        "englishName": "Mars",
        "isPlanet": true,
        "moons": [
            {
                "moon": "Phobos",
                "rel": "https://api.le-systeme-solaire.net/rest/bodies/phobos"
            },
            {
                "moon": "De\u00efmos",
                "rel": "https://api.le-systeme-solaire.net/rest/bodies/deimos"
            }
        ],
        "semimajorAxis": 227939200,
        "perihelion": 206700000,
        "aphelion": 249200000,
        "eccentricity": 0.0935,
        "inclination": 1.85,
        "mass": {
            "massValue": 6.41712,
            "massExponent": 23
        },
        "vol": {
            "volValue": 1.6318,
            "volExponent": 11
        },
        "density": 3.9341,
        "gravity": 3.71,
        "escape": 5030.0,
        "meanRadius": 3389.5,
        "equaRadius": 3396.19,
        "polarRadius": 3376.2,
        "flattening": 0.00589,
        "dimension": "",
        "sideralOrbit": 686.98,
        "sideralRotation": 24.6229,
        "aroundPlanet": null,
        "discoveredBy": "",
        "discoveryDate": "",
        "alternativeName": "",
        "axialTilt": 25.19,
        "avgTemp": 210,
        "mainAnomaly": 19.412,
        "argPeriapsis": 286.231,
        "longAscNode": 49.667,
        "bodyType": "Planet",
        "rel": "https://api.le-systeme-solaire.net/rest/bodies/mars",
        "image": "https://upload.wikimedia.org/wikipedia/commons/0/0e/Tharsis_and_Valles_Marineris_-_Mars_Orbiter_Mission_%2830055660701%29.png",
        "s_1": "00694",
        "so_1": 102.67,
        "s_2": "23613",
        "so_2": 1436.14,
        "s_3": "11574",
        "so_3": 99.93,
        "so_diff_1": 6.6911,
        "so_diff_2": 0.4784,
        "so_diff_3": 6.8746
    },
    {
        "id": 1004,
        "name": "Mercure",
        "englishName": "Mercury",
        "isPlanet": true,
        "moons": null,
        "semimajorAxis": 57909050,
        "perihelion": 46001200,
        "aphelion": 69816900,
        "eccentricity": 0.2056,
        "inclination": 7.0,
        "mass": {
            "massValue": 3.30114,
            "massExponent": 23
        },
        "vol": {
            "volValue": 6.083,
            "volExponent": 10
        },
        "density": 5.4291,
        "gravity": 3.7,
        "escape": 4250.0,
        "meanRadius": 2439.4,
        "equaRadius": 2440.53,
        "polarRadius": 2439.7,
        "flattening": 0.0,
        "dimension": "",
        "sideralOrbit": 87.969,
        "sideralRotation": 1407.6,
        "aroundPlanet": null,
        "discoveredBy": "",
        "discoveryDate": "",
        "alternativeName": "",
        "axialTilt": 0.0352,
        "avgTemp": 440,
        "mainAnomaly": 174.796,
        "argPeriapsis": 29.022,
        "longAscNode": 48.378,
        "bodyType": "Planet",
        "rel": "https://api.le-systeme-solaire.net/rest/bodies/mercure",
        "image": "https://upload.wikimedia.org/wikipedia/commons/4/4a/Mercury_in_true_color.jpg",
        "s_1": "32299",
        "so_1": 1436.09,
        "s_2": "32794",
        "so_2": 1436.12,
        "s_3": "05118",
        "so_3": 95.09,
        "so_diff_1": 0.0613,
        "so_diff_2": 0.0613,
        "so_diff_3": 0.9251
    },
    {
        "id": 1005,
        "name": "Saturne",
        "englishName": "Saturn",
        "isPlanet": true,
        "moons": [
            {
                "moon": "Mimas",
                "rel": "https://api.le-systeme-solaire.net/rest/bodies/mimas"
            },
            {
                "moon": "Encelade",
                "rel": "https://api.le-systeme-solaire.net/rest/bodies/encelade"
            },
            {
                "moon": "T\u00e9thys",
                "rel": "https://api.le-systeme-solaire.net/rest/bodies/tethys"
            },
            {
                "moon": "Dion\u00e9",
                "rel": "https://api.le-systeme-solaire.net/rest/bodies/dione"
            },
            {
                "moon": "Rh\u00e9a",
                "rel": "https://api.le-systeme-solaire.net/rest/bodies/rhea"
            },
            {
                "moon": "Titan",
                "rel": "https://api.le-systeme-solaire.net/rest/bodies/titan"
            },
            {
                "moon": "Hyp\u00e9rion",
                "rel": "https://api.le-systeme-solaire.net/rest/bodies/hyperion"
            },
            {
                "moon": "Japet",
                "rel": "https://api.le-systeme-solaire.net/rest/bodies/japet"
            },
            {
                "moon": "Ph\u0153b\u00e9",
                "rel": "https://api.le-systeme-solaire.net/rest/bodies/phoebe"
            },
            {
                "moon": "Janus",
                "rel": "https://api.le-systeme-solaire.net/rest/bodies/janus"
            },
            {
                "moon": "Epim\u00e9th\u00e9e",
                "rel": "https://api.le-systeme-solaire.net/rest/bodies/epimethee"
            },
            {
                "moon": "H\u00e9l\u00e8ne",
                "rel": "https://api.le-systeme-solaire.net/rest/bodies/helene"
            },
            {
                "moon": "T\u00e9lesto",
                "rel": "https://api.le-systeme-solaire.net/rest/bodies/telesto"
            },
            {
                "moon": "Calypso",
                "rel": "https://api.le-systeme-solaire.net/rest/bodies/calypso"
            },
            {
                "moon": "Atlas",
                "rel": "https://api.le-systeme-solaire.net/rest/bodies/atlas"
            },
            {
                "moon": "Prom\u00e9th\u00e9e",
                "rel": "https://api.le-systeme-solaire.net/rest/bodies/promethee"
            },
            {
                "moon": "Pandore",
                "rel": "https://api.le-systeme-solaire.net/rest/bodies/pandore"
            },
            {
                "moon": "Pan",
                "rel": "https://api.le-systeme-solaire.net/rest/bodies/pan"
            },
            {
                "moon": "Ymir",
                "rel": "https://api.le-systeme-solaire.net/rest/bodies/ymir"
            },
            {
                "moon": "Paaliaq",
                "rel": "https://api.le-systeme-solaire.net/rest/bodies/paaliaq"
            },
            {
                "moon": "Tarvos",
                "rel": "https://api.le-systeme-solaire.net/rest/bodies/tarvos"
            },
            {
                "moon": "Ijiraq",
                "rel": "https://api.le-systeme-solaire.net/rest/bodies/ijiraq"
            },
            {
                "moon": "Suttungr",
                "rel": "https://api.le-systeme-solaire.net/rest/bodies/suttungr"
            },
            {
                "moon": "Kiviuq",
                "rel": "https://api.le-systeme-solaire.net/rest/bodies/kiviuq"
            },
            {
                "moon": "Mundilfari",
                "rel": "https://api.le-systeme-solaire.net/rest/bodies/mundilfari"
            },
            {
                "moon": "Albiorix",
                "rel": "https://api.le-systeme-solaire.net/rest/bodies/albiorix"
            },
            {
                "moon": "Skathi",
                "rel": "https://api.le-systeme-solaire.net/rest/bodies/skathi"
            },
            {
                "moon": "Erriapo",
                "rel": "https://api.le-systeme-solaire.net/rest/bodies/erriapo"
            },
            {
                "moon": "Siarnaq",
                "rel": "https://api.le-systeme-solaire.net/rest/bodies/siarnaq"
            },
            {
                "moon": "Thrymr",
                "rel": "https://api.le-systeme-solaire.net/rest/bodies/thrymr"
            },
            {
                "moon": "Narvi",
                "rel": "https://api.le-systeme-solaire.net/rest/bodies/narvi"
            },
            {
                "moon": "M\u00e9thone",
                "rel": "https://api.le-systeme-solaire.net/rest/bodies/methone"
            },
            {
                "moon": "Pall\u00e8ne",
                "rel": "https://api.le-systeme-solaire.net/rest/bodies/pallene"
            },
            {
                "moon": "Pollux",
                "rel": "https://api.le-systeme-solaire.net/rest/bodies/pollux"
            },
            {
                "moon": "Daphnis",
                "rel": "https://api.le-systeme-solaire.net/rest/bodies/daphnis"
            },
            {
                "moon": "Aegir",
                "rel": "https://api.le-systeme-solaire.net/rest/bodies/aegir"
            },
            {
                "moon": "Bebhionn",
                "rel": "https://api.le-systeme-solaire.net/rest/bodies/bebhionn"
            },
            {
                "moon": "Bergelmir",
                "rel": "https://api.le-systeme-solaire.net/rest/bodies/bergelmir"
            },
            {
                "moon": "Bestla",
                "rel": "https://api.le-systeme-solaire.net/rest/bodies/bestla"
            },
            {
                "moon": "Farbauti",
                "rel": "https://api.le-systeme-solaire.net/rest/bodies/farbauti"
            },
            {
                "moon": "Fenrir",
                "rel": "https://api.le-systeme-solaire.net/rest/bodies/fenrir"
            },
            {
                "moon": "Fornjot",
                "rel": "https://api.le-systeme-solaire.net/rest/bodies/fornjot"
            },
            {
                "moon": "Hati",
                "rel": "https://api.le-systeme-solaire.net/rest/bodies/hati"
            },
            {
                "moon": "Hyrrokkin",
                "rel": "https://api.le-systeme-solaire.net/rest/bodies/hyrrokkin"
            },
            {
                "moon": "Kari",
                "rel": "https://api.le-systeme-solaire.net/rest/bodies/kari"
            },
            {
                "moon": "Loge",
                "rel": "https://api.le-systeme-solaire.net/rest/bodies/loge"
            },
            {
                "moon": "Skoll",
                "rel": "https://api.le-systeme-solaire.net/rest/bodies/skoll"
            },
            {
                "moon": "Surtur",
                "rel": "https://api.le-systeme-solaire.net/rest/bodies/surtur"
            },
            {
                "moon": "Anth\u00e9",
                "rel": "https://api.le-systeme-solaire.net/rest/bodies/anthe"
            },
            {
                "moon": "Jarnsaxa",
                "rel": "https://api.le-systeme-solaire.net/rest/bodies/jarnsaxa"
            },
            {
                "moon": "Greip",
                "rel": "https://api.le-systeme-solaire.net/rest/bodies/greip"
            },
            {
                "moon": "Tarqeq",
                "rel": "https://api.le-systeme-solaire.net/rest/bodies/tarqeq"
            },
            {
                "moon": "\u00c9g\u00e9on",
                "rel": "https://api.le-systeme-solaire.net/rest/bodies/egeon"
            },
            {
                "moon": "S/2004 S 7",
                "rel": "https://api.le-systeme-solaire.net/rest/bodies/s2004s7"
            },
            {
                "moon": "S/2004 S 12",
                "rel": "https://api.le-systeme-solaire.net/rest/bodies/s2004s12"
            },
            {
                "moon": "S/2004 S 13",
                "rel": "https://api.le-systeme-solaire.net/rest/bodies/s2004s13"
            },
            {
                "moon": "S/2004 S 17",
                "rel": "https://api.le-systeme-solaire.net/rest/bodies/s2004s17"
            },
            {
                "moon": "S/2006 S 1",
                "rel": "https://api.le-systeme-solaire.net/rest/bodies/s2006s1"
            },
            {
                "moon": "S/2006 S 3",
                "rel": "https://api.le-systeme-solaire.net/rest/bodies/s2006s3"
            },
            {
                "moon": "S/2007 S 2",
                "rel": "https://api.le-systeme-solaire.net/rest/bodies/s2007s2"
            },
            {
                "moon": "S/2007 S 3",
                "rel": "https://api.le-systeme-solaire.net/rest/bodies/s2007s3"
            },
            {
                "moon": "S/2009 S 1",
                "rel": "https://api.le-systeme-solaire.net/rest/bodies/s2009s1"
            },
            {
                "moon": "S/2004 S 22",
                "rel": "https://api.le-systeme-solaire.net/rest/bodies/s2004s22"
            },
            {
                "moon": "S/2004 S 21",
                "rel": "https://api.le-systeme-solaire.net/rest/bodies/s2004s21"
            },
            {
                "moon": "S/2004 S 20",
                "rel": "https://api.le-systeme-solaire.net/rest/bodies/s2004s20"
            },
            {
                "moon": "S/2004 S 23",
                "rel": "https://api.le-systeme-solaire.net/rest/bodies/s2004s23"
            },
            {
                "moon": "S/2004 S 24",
                "rel": "https://api.le-systeme-solaire.net/rest/bodies/s2004s24"
            },
            {
                "moon": "S/2004 S 25",
                "rel": "https://api.le-systeme-solaire.net/rest/bodies/s2004s25"
            },
            {
                "moon": "S/2004 S 26",
                "rel": "https://api.le-systeme-solaire.net/rest/bodies/s2004s26"
            },
            {
                "moon": "S/2004 S 27",
                "rel": "https://api.le-systeme-solaire.net/rest/bodies/s2004s27"
            },
            {
                "moon": "S/2004 S 28",
                "rel": "https://api.le-systeme-solaire.net/rest/bodies/s2004s28"
            },
            {
                "moon": "S/2004 S 29",
                "rel": "https://api.le-systeme-solaire.net/rest/bodies/s2004s29"
            },
            {
                "moon": "S/2004 S 30",
                "rel": "https://api.le-systeme-solaire.net/rest/bodies/s2004s30"
            },
            {
                "moon": "S/2004 S 31",
                "rel": "https://api.le-systeme-solaire.net/rest/bodies/s2004s31"
            },
            {
                "moon": "S/2004 S 32",
                "rel": "https://api.le-systeme-solaire.net/rest/bodies/s2004s32"
            },
            {
                "moon": "S/2004 S 33",
                "rel": "https://api.le-systeme-solaire.net/rest/bodies/s2004s33"
            },
            {
                "moon": "S/2004 S 34",
                "rel": "https://api.le-systeme-solaire.net/rest/bodies/s2004s34"
            },
            {
                "moon": "S/2004 S 35",
                "rel": "https://api.le-systeme-solaire.net/rest/bodies/s2004s35"
            },
            {
                "moon": "S/2004 S 36",
                "rel": "https://api.le-systeme-solaire.net/rest/bodies/s2004s36"
            },
            {
                "moon": "S/2004 S 37",
                "rel": "https://api.le-systeme-solaire.net/rest/bodies/s2004s37"
            },
            {
                "moon": "S/2004 S 38",
                "rel": "https://api.le-systeme-solaire.net/rest/bodies/s2004s38"
            },
            {
                "moon": "S/2004 S 39",
                "rel": "https://api.le-systeme-solaire.net/rest/bodies/s2004s39"
            }
        ],
        "semimajorAxis": 1426666422,
        "perihelion": 1349823615,
        "aphelion": 1503509229,
        "eccentricity": 0.0565,
        "inclination": 2.485,
        "mass": {
            "massValue": 5.68336,
            "massExponent": 26
        },
        "vol": {
            "volValue": 8.2713,
            "volExponent": 14
        },
        "density": 0.6871,
        "gravity": 10.44,
        "escape": 36090.0,
        "meanRadius": 58232.0,
        "equaRadius": 60268.0,
        "polarRadius": 54364.0,
        "flattening": 0.09796,
        "dimension": "",
        "sideralOrbit": 10759.22,
        "sideralRotation": 10.656,
        "aroundPlanet": null,
        "discoveredBy": "",
        "discoveryDate": "",
        "alternativeName": "",
        "axialTilt": 26.73,
        "avgTemp": 134,
        "mainAnomaly": 317.02,
        "argPeriapsis": 336.178,
        "longAscNode": 113.759,
        "bodyType": "Planet",
        "rel": "https://api.le-systeme-solaire.net/rest/bodies/saturne",
        "image": "https://upload.wikimedia.org/wikipedia/commons/c/c7/Saturn_during_Equinox.jpg",
        "s_1": "23802",
        "so_1": 1108.99,
        "s_2": "27603",
        "so_2": 1436.06,
        "s_3": "32253",
        "so_3": 1436.09,
        "so_diff_1": 9.7018,
        "so_diff_2": 7.4922,
        "so_diff_3": 7.492
    },
    {
        "id": 1006,
        "name": "La Terre",
        "englishName": "Earth",
        "isPlanet": true,
        "moons": [
            {
                "moon": "La Lune",
                "rel": "https://api.le-systeme-solaire.net/rest/bodies/lune"
            }
        ],
        "semimajorAxis": 149598023,
        "perihelion": 147095000,
        "aphelion": 152100000,
        "eccentricity": 0.0167,
        "inclination": 0.0,
        "mass": {
            "massValue": 5.97237,
            "massExponent": 24
        },
        "vol": {
            "volValue": 1.08321,
            "volExponent": 12
        },
        "density": 5.5136,
        "gravity": 9.8,
        "escape": 11190.0,
        "meanRadius": 6371.0084,
        "equaRadius": 6378.1366,
        "polarRadius": 6356.8,
        "flattening": 0.00335,
        "dimension": "",
        "sideralOrbit": 365.256,
        "sideralRotation": 23.9345,
        "aroundPlanet": null,
        "discoveredBy": "",
        "discoveryDate": "",
        "alternativeName": "",
        "axialTilt": 23.4393,
        "avgTemp": 288,
        "mainAnomaly": 358.617,
        "argPeriapsis": 85.901,
        "longAscNode": 18.272,
        "bodyType": "Planet",
        "rel": "https://api.le-systeme-solaire.net/rest/bodies/terre",
        "image": "https://upload.wikimedia.org/wikipedia/commons/c/cb/The_Blue_Marble_%28remastered%29.jpg",
        "s_1": "22285",
        "so_1": 101.76,
        "s_2": "28908",
        "so_2": 114.69,
        "s_3": "30794",
        "so_3": 1436.12,
        "so_diff_1": 3.5894,
        "so_diff_2": 3.1847,
        "so_diff_3": 0.2543
    },
    {
        "id": 1007,
        "name": "V\u00e9nus",
        "englishName": "Venus",
        "isPlanet": true,
        "moons": null,
        "semimajorAxis": 108208475,
        "perihelion": 107477000,
        "aphelion": 108939000,
        "eccentricity": 0.0067,
        "inclination": 3.39,
        "mass": {
            "massValue": 4.86747,
            "massExponent": 24
        },
        "vol": {
            "volValue": 9.2843,
            "volExponent": 11
        },
        "density": 5.243,
        "gravity": 8.87,
        "escape": 10360.0,
        "meanRadius": 6051.8,
        "equaRadius": 6051.8,
        "polarRadius": 6051.8,
        "flattening": 0.0,
        "dimension": "",
        "sideralOrbit": 224.701,
        "sideralRotation": -5832.5,
        "aroundPlanet": null,
        "discoveredBy": "",
        "discoveryDate": "",
        "alternativeName": "",
        "axialTilt": 177.36,
        "avgTemp": 737,
        "mainAnomaly": 50.115,
        "argPeriapsis": 54.78,
        "longAscNode": 76.785,
        "bodyType": "Planet",
        "rel": "https://api.le-systeme-solaire.net/rest/bodies/venus",
        "image": "https://upload.wikimedia.org/wikipedia/commons/b/b2/Venus_2_Approach_Image.jpg",
        "s_1": "28521",
        "so_1": 103.77,
        "s_2": "26998",
        "so_2": 96.71,
        "s_3": "27711",
        "so_3": 1436.07,
        "so_diff_1": 2.1654,
        "so_diff_2": 2.3235,
        "so_diff_3": 0.1565
    }
]