// Jest Snapshot v1, https://goo.gl/fbAQLP

exports[`Drop Down Select created correctly 1`] = `
<div
  className="MuiBox-root css-1tzejur"
>
  <div
    className="MuiFormControl-root MuiFormControl-fullWidth css-q8hpuo-MuiFormControl-root"
  >
    <label
      className="MuiFormLabel-root MuiInputLabel-root MuiInputLabel-formControl MuiInputLabel-animated MuiInputLabel-outlined MuiFormLabel-colorPrimary MuiInputLabel-root MuiInputLabel-formControl MuiInputLabel-animated MuiInputLabel-outlined css-14s5rfu-MuiFormLabel-root-MuiInputLabel-root"
      data-shrink={false}
      id="demo-simple-select-label"
    >
      Size
    </label>
    <div
      className="MuiInputBase-root MuiOutlinedInput-root MuiInputBase-colorPrimary MuiInputBase-formControl  css-1yk1gt9-MuiInputBase-root-MuiOutlinedInput-root-MuiSelect-root"
      onClick={[Function]}
    >
      <div
        aria-expanded="false"
        aria-haspopup="listbox"
        aria-labelledby="demo-simple-select-label demo-simple-select"
        className="MuiSelect-select MuiSelect-outlined MuiInputBase-input MuiOutlinedInput-input css-11u53oe-MuiSelect-select-MuiInputBase-input-MuiOutlinedInput-input"
        id="demo-simple-select"
        onBlur={[Function]}
        onFocus={[Function]}
        onKeyDown={[Function]}
        onMouseDown={[Function]}
        role="button"
        tabIndex={0}
      >
        <span
          className="notranslate"
        >
          ​
        </span>
      </div>
      <input
        aria-hidden={true}
        className="MuiSelect-nativeInput css-yf8vq0-MuiSelect-nativeInput"
        disabled={false}
        onAnimationStart={[Function]}
        onChange={[Function]}
        required={false}
        tabIndex={-1}
        value=""
      />
      <svg
        aria-hidden={true}
        className="MuiSvgIcon-root MuiSvgIcon-fontSizeMedium MuiSelect-icon MuiSelect-iconOutlined css-hfutr2-MuiSvgIcon-root-MuiSelect-icon"
        data-testid="ArrowDropDownIcon"
        focusable="false"
        viewBox="0 0 24 24"
      >
        <path
          d="M7 10l5 5 5-5z"
        />
      </svg>
      <fieldset
        aria-hidden={true}
        className="MuiOutlinedInput-notchedOutline css-1d3z3hw-MuiOutlinedInput-notchedOutline"
      >
        <legend
          className="css-yjsfm1"
        >
          <span>
            Size
          </span>
        </legend>
      </fieldset>
    </div>
  </div>
</div>
`;

exports[`Range Slider created correctly 1`] = `
<div
  className="MuiBox-root css-1v5z18m"
>
  <p
    className="MuiTypography-root MuiTypography-body1 MuiTypography-gutterBottom css-vzwly6-MuiTypography-root"
    id="input-slider"
  >
    Launch Date
  </p>
  <span
    className="MuiSlider-root MuiSlider-colorPrimary MuiSlider-sizeMedium css-14oogno-MuiSlider-root"
    onMouseDown={[Function]}
  >
    <span
      className="MuiSlider-rail css-14pt78w-MuiSlider-rail"
    />
    <span
      className="MuiSlider-track css-1gv0vcd-MuiSlider-track"
      style={
        Object {
          "left": "0%",
          "width": "100%",
        }
      }
    />
    <span
      className="MuiSlider-thumb MuiSlider-thumbColorPrimary MuiSlider-thumbSizeMedium css-eg0mwd-MuiSlider-thumb"
      data-focusvisible={false}
      data-index={0}
      onMouseLeave={[Function]}
      onMouseOver={[Function]}
      style={
        Object {
          "left": "0%",
          "pointerEvents": undefined,
        }
      }
    >
      <input
        aria-orientation="horizontal"
        aria-valuemax={2019}
        aria-valuemin={1963}
        aria-valuenow={1963}
        aria-valuetext="1963°C"
        data-index={0}
        disabled={false}
        max={2019}
        min={1963}
        onBlur={[Function]}
        onChange={[Function]}
        onFocus={[Function]}
        step={1}
        style={
          Object {
            "border": 0,
            "clip": "rect(0 0 0 0)",
            "direction": "ltr",
            "height": "100%",
            "margin": -1,
            "overflow": "hidden",
            "padding": 0,
            "position": "absolute",
            "whiteSpace": "nowrap",
            "width": "100%",
          }
        }
        type="range"
        value={1963}
      />
      <span
        aria-hidden={true}
        className="MuiSlider-valueLabel css-nnid7-MuiSlider-valueLabel"
      >
        <span
          className="MuiSlider-valueLabelCircle"
        >
          <span
            className="MuiSlider-valueLabelLabel"
          >
            1963
          </span>
        </span>
      </span>
    </span>
    <span
      className="MuiSlider-thumb MuiSlider-thumbColorPrimary MuiSlider-thumbSizeMedium css-eg0mwd-MuiSlider-thumb"
      data-focusvisible={false}
      data-index={1}
      onMouseLeave={[Function]}
      onMouseOver={[Function]}
      style={
        Object {
          "left": "100%",
          "pointerEvents": undefined,
        }
      }
    >
      <input
        aria-orientation="horizontal"
        aria-valuemax={2019}
        aria-valuemin={1963}
        aria-valuenow={2019}
        aria-valuetext="2019°C"
        data-index={1}
        disabled={false}
        max={2019}
        min={1963}
        onBlur={[Function]}
        onChange={[Function]}
        onFocus={[Function]}
        step={1}
        style={
          Object {
            "border": 0,
            "clip": "rect(0 0 0 0)",
            "direction": "ltr",
            "height": "100%",
            "margin": -1,
            "overflow": "hidden",
            "padding": 0,
            "position": "absolute",
            "whiteSpace": "nowrap",
            "width": "100%",
          }
        }
        type="range"
        value={2019}
      />
      <span
        aria-hidden={true}
        className="MuiSlider-valueLabel css-nnid7-MuiSlider-valueLabel"
      >
        <span
          className="MuiSlider-valueLabelCircle"
        >
          <span
            className="MuiSlider-valueLabelLabel"
          >
            2019
          </span>
        </span>
      </span>
    </span>
  </span>
</div>
`;

exports[`about card initializes correctly 1`] = `
<div
  className="card bg-dark text-white"
>
  <img
    className="card-img-top"
    src="default.jpg"
  />
  <div
    className="card-body"
  >
    <div
      className="card-title h5"
    >
      Name
    </div>
    <p
      className="card-text"
    >
      Bio
    </p>
  </div>
  <div
    className="list-group-flush list-group"
    onKeyDown={[Function]}
  >
    <div
      className="list-group-item"
      data-rr-ui-event-key={null}
      onClick={[Function]}
    >
      Responsibilities
    </div>
    <div
      className="list-group-item"
      data-rr-ui-event-key={null}
      onClick={[Function]}
    >
      0
       commits, 
      0
       issues, 
      0
       unit tests
    </div>
  </div>
</div>
`;

exports[`about page initializes correctly 1`] = `ShallowWrapper {}`;

exports[`home page initializes correctly 1`] = `ShallowWrapper {}`;

exports[`launch image card initializes correctly 1`] = `
<div
  className="custom-card card bg-dark text-white"
>
  <img
    className="card-img-top"
    src="https://live.staticflickr.com/65535/49421605028_b7ba890f0e_o.jpg"
  />
  <div
    className="card-body"
  >
    <div
      className="card-title h5"
    >
      <span>
        <span
          className=""
        >
          Crew Dragon In Flight Abort Test
        </span>
      </span>
    </div>
    <p
      className="card-text"
    >
      <p
        className="p3"
      >
        <b>
          Ships: 
        </b>
        <span>
          <span
            className=""
          >
            1
          </span>
        </span>
      </p>
      <p
        className="p3"
      >
        <b>
          Success: 
        </b>
         
        True
         
      </p>
      <p
        className="p3"
      >
        <b>
          Cores Reused: 
        </b>
         
        False
         
      </p>
      <p
        className="p3"
      >
        <b>
          Launch Date: 
        </b>
        <span>
          <span
            className=""
          >
            2020-01-19
          </span>
        </span>
         
      </p>
      <p
        className="p3"
      >
        <b>
          Static Fire Date: 
        </b>
        <span>
          <span
            className=""
          >
            2020-01-11
          </span>
        </span>
      </p>
    </p>
  </div>
</div>
`;

exports[`launch instance page initializes correctly 1`] = `ShallowWrapper {}`;

exports[`launch page card initializes correctly 1`] = `
<div
  className="react-card-flip"
  style={
    Object {
      "perspective": "1000px",
      "zIndex": "auto",
    }
  }
>
  <div
    className="react-card-flipper"
    style={
      Object {
        "height": "100%",
        "position": "relative",
        "width": "100%",
      }
    }
  >
    <div
      className="react-card-front"
      style={
        Object {
          "WebkitBackfaceVisibility": "hidden",
          "backfaceVisibility": "hidden",
          "height": "100%",
          "left": "0",
          "position": "relative",
          "top": "0",
          "transform": "rotateY(0deg)",
          "transformStyle": "preserve-3d",
          "transition": "0.6s",
          "width": "100%",
          "zIndex": "2",
        }
      }
    >
      <div
        className="text-center card-front card text-white"
        onClick={[Function]}
        style={
          Object {
            "cursor": "pointer",
            "width": "50rem",
          }
        }
      >
        <div
          className="video-responsive"
        >
          <iframe
            allow="accelerometer; autoplay; clipboard-write; encrypted-media; gyroscope; picture-in-picture"
            allowFullScreen={true}
            frameBorder="0"
            height="422"
            src="https://www.youtube.com/embed/mhrkdHshb3E"
            title="Embedded youtube"
            width="750"
          />
        </div>
        <div
          className="footer-front container card-footer"
        >
          Learn more. 
          <img
            alt="plus icon"
            className="plus-icon"
            height={25}
            src="repeat.png"
            width={25}
          />
        </div>
      </div>
    </div>
    <div
      className="react-card-back"
      style={
        Object {
          "WebkitBackfaceVisibility": "hidden",
          "backfaceVisibility": "hidden",
          "height": "100%",
          "left": "0",
          "position": "absolute",
          "top": "0",
          "transform": "rotateY(-180deg)",
          "transformStyle": "preserve-3d",
          "transition": "0.6s",
          "width": "100%",
        }
      }
    >
      <div
        className="text-left card-front card text-white"
        onClick={[Function]}
        style={
          Object {
            "cursor": "pointer",
            "width": "50rem",
          }
        }
      >
        <div
          className="card-body"
        >
          <div
            className="card-title h5"
            style={
              Object {
                "fontWeight": "bold",
              }
            }
          >
            Additional Information
          </div>
          <p>
            <b>
              Ships:
            </b>
             
            1
          </p>
          <p>
            <b>
              Cores Reused:
            </b>
             
            false
          </p>
          <p>
            <b>
              Cores Success:
            </b>
             
            Unknown
          </p>
          <p>
            <b>
              Launch Name:
            </b>
             
            Crew Dragon In Flight Abort Test
          </p>
          <p>
            <b>
              Launch Success:
            </b>
             
            true
          </p>
          <p>
            <b>
              Launch Date:
            </b>
             
            2020-01-19
          </p>
          <p>
            <b>
              Static Fire Date:
            </b>
             
            2020-01-11
          </p>
          <p>
            <b>
              Details:
            </b>
             
            SpaceX will launch a Crew Dragon capsule from LC-39A, KSC on a fully fueled Falcon 9 rocket and then trigger the launch escape system during the period of maximum dynamic pressure. As part of NASA'a Commercial Crew Integrated Capability program (CCiCap) this test will contribute valuable data to help validate Crew Dragon and its launch abort system. 
          </p>
          <p>
            <b>
              Links: 
            </b>
             
            <a
              href="https://www.reddit.com/r/spacex/comments/eq24ap/rspacex_inflight_abort_test_official_launch"
              rel="noreferrer"
              target="_blank"
            >
              Reddit Thread
            </a>
             | 
            <a
              href="https://en.wikipedia.org/wiki/Commercial_Crew_Development"
              rel="noreferrer"
              target="_blank"
            >
              Wikipedia
            </a>
             | 
            <a
              href="https://spaceflightnow.com/2020/01/19/spacex-aces-final-major-test-before-first-crew-mission"
              rel="noreferrer"
              target="_blank"
            >
              Article
            </a>
          </p>
        </div>
        <div
          className="footer-front container card-footer"
        >
          <img
            alt="plus icon"
            className="plus-icon"
            height={25}
            src="repeat.png"
            width={25}
          />
        </div>
      </div>
    </div>
  </div>
</div>
`;

exports[`launches page initializes correctly 1`] = `ShallowWrapper {}`;

exports[`navbar initializes correctly 1`] = `ShallowWrapper {}`;

exports[`planet moon image card initializes correctly 1`] = `
<div
  className="card bg-dark text-white"
>
  <img
    className="card-img-top"
    src="https://upload.wikimedia.org/wikipedia/commons/c/c9/Uranus_as_seen_by_NASA%27s_Voyager_2_%28remastered%29_-_JPEG_converted.jpg"
  />
  <div
    className="card-body"
  >
    <div
      className="card-title h5"
    >
      <span>
        <span
          className=""
        >
          Uranus
        </span>
      </span>
    </div>
    <p
      className="card-text"
    >
      <p
        className="p3"
      >
        <b>
          Mass: 
        </b>
         
        8.68e+0
         kg
      </p>
      <p
        className="p3"
      >
        <b>
          Gravity: 
        </b>
         
        8.87
         ms
        <sup>
          -2
        </sup>
      </p>
      <p
        className="p3"
      >
        <b>
          Density: 
        </b>
         
        1.27
         kg/m
        <sup>
          3
        </sup>
      </p>
      <p
        className="p3"
      >
        <b>
          Discovery Date: 
        </b>
        <span>
          <span
            className=""
          >
            13/03/1781
          </span>
        </span>
      </p>
      <p
        className="p3"
      >
        <b>
          Mean Radius: 
        </b>
         
        25362.00
         km
      </p>
    </p>
  </div>
</div>
`;

exports[`planet moon instance page initializes correctly 1`] = `ShallowWrapper {}`;

exports[`planet moon page card initializes correctly 1`] = `
<div
  className="react-card-flip"
  style={
    Object {
      "perspective": "1000px",
      "zIndex": "auto",
    }
  }
>
  <div
    className="react-card-flipper"
    style={
      Object {
        "height": "100%",
        "position": "relative",
        "width": "100%",
      }
    }
  >
    <div
      className="react-card-front"
      style={
        Object {
          "WebkitBackfaceVisibility": "hidden",
          "backfaceVisibility": "hidden",
          "height": "100%",
          "left": "0",
          "position": "relative",
          "top": "0",
          "transform": "rotateY(0deg)",
          "transformStyle": "preserve-3d",
          "transition": "0.6s",
          "width": "100%",
          "zIndex": "2",
        }
      }
    >
      <div
        className="text-center card-front card text-white"
        onClick={[Function]}
        style={
          Object {
            "cursor": "pointer",
            "width": "25rem",
          }
        }
      >
        <img
          className="card-img-top"
          src="https://upload.wikimedia.org/wikipedia/commons/c/c9/Uranus_as_seen_by_NASA%27s_Voyager_2_%28remastered%29_-_JPEG_converted.jpg"
        />
        <div
          className="footer-front container card-footer"
        >
          Learn more. 
          <img
            alt="plus icon"
            className="plus-icon"
            height={25}
            src="repeat.png"
            width={25}
          />
        </div>
      </div>
    </div>
    <div
      className="react-card-back"
      style={
        Object {
          "WebkitBackfaceVisibility": "hidden",
          "backfaceVisibility": "hidden",
          "height": "100%",
          "left": "0",
          "position": "absolute",
          "top": "0",
          "transform": "rotateY(-180deg)",
          "transformStyle": "preserve-3d",
          "transition": "0.6s",
          "width": "100%",
        }
      }
    >
      <div
        className="text-left card-front card text-white"
        onClick={[Function]}
        style={
          Object {
            "cursor": "pointer",
            "width": "25rem",
          }
        }
      >
        <div
          className="card-body"
        >
          <div
            className="card-title h5"
            style={
              Object {
                "fontWeight": "bold",
              }
            }
          >
            Additional Information
          </div>
          <p>
            <b>
              Mass: 
            </b>
             
            8.68e+0
             kg
          </p>
          <p>
            <b>
              Gravity: 
            </b>
             
            8.87
             ms
            <sup>
              -2
            </sup>
          </p>
          <p>
            <b>
              Body Type: 
            </b>
             
            Planet
             
          </p>
          <p>
            <b>
              Density: 
            </b>
             
            1.27
             kg/m
            <sup>
              3
            </sup>
          </p>
          <p>
            <b>
              Mean Radius: 
            </b>
             
            25362.00
             km
          </p>
          <p>
            <b>
              Discovery Date: 
            </b>
             
            13/03/1781
          </p>
          <p>
            <b>
              Average Temperature: 
            </b>
             
            0.00
             K
          </p>
          <p>
            <b>
              Discovered By: 
            </b>
             
            William Herschel
          </p>
          <p>
            <b>
              Orbital Period: 
            </b>
             
            316.116297.07
          </p>
        </div>
        <div
          className="footer-front container card-footer"
        >
          <img
            alt="plus icon"
            className="plus-icon"
            height={25}
            src="repeat.png"
            width={25}
          />
        </div>
      </div>
    </div>
  </div>
</div>
`;

exports[`planets and moons page initializes correctly 1`] = `ShallowWrapper {}`;

exports[`satellite image card initializes correctly 1`] = `
<div
  className="custom-card card bg-dark text-white"
>
  <img
    className="card-img-top"
    src="https://uphere-space.sfo2.digitaloceanspaces.com/images/satellites_numbers/default.webp"
  />
  <div
    className="card-body"
  >
    <div
      className="card-title h5"
    >
      <span>
        <span
          className=""
        >
          DELTA 2 R/B(1)
        </span>
      </span>
    </div>
    <p
      className="card-text"
    >
      <p
        className="p3"
      >
        <b>
          Size: 
        </b>
         
        LARGE
         
      </p>
      <p
        className="p3"
      >
        <b>
          Satellite Type: 
        </b>
         
        ROCKET BODY
         
      </p>
      <p
        className="p3"
      >
        <b>
          Launch Date: 
        </b>
        <span>
          <span
            className=""
          >
            1990-01-24
          </span>
        </span>
         
      </p>
      <p
        className="p3"
      >
        <b>
          Country: 
        </b>
        <span>
          <span
            className=""
          >
            US
          </span>
        </span>
      </p>
      <p
        className="p3"
      >
        <b>
          Orbital Period: 
        </b>
        <span>
          <span
            className=""
          >
            96.56
          </span>
        </span>
         
      </p>
    </p>
  </div>
</div>
`;

exports[`satellite instance page initializes correctly 1`] = `ShallowWrapper {}`;

exports[`satellite page card initializes correctly 1`] = `
<div
  className="react-card-flip"
  style={
    Object {
      "perspective": "1000px",
      "zIndex": "auto",
    }
  }
>
  <div
    className="react-card-flipper"
    style={
      Object {
        "height": "100%",
        "position": "relative",
        "width": "100%",
      }
    }
  >
    <div
      className="react-card-front"
      style={
        Object {
          "WebkitBackfaceVisibility": "hidden",
          "backfaceVisibility": "hidden",
          "height": "100%",
          "left": "0",
          "position": "relative",
          "top": "0",
          "transform": "rotateY(0deg)",
          "transformStyle": "preserve-3d",
          "transition": "0.6s",
          "width": "100%",
          "zIndex": "2",
        }
      }
    >
      <div
        className="text-center card-front card text-white"
        onClick={[Function]}
        style={
          Object {
            "cursor": "pointer",
            "width": "25rem",
          }
        }
      >
        <img
          className="card-img-top"
          src="https://uphere-space.sfo2.digitaloceanspaces.com/images/satellites_numbers/default.webp"
        />
        <div
          className="footer-front container card-footer"
        >
          Learn more. 
          <img
            alt="plus icon"
            className="plus-icon"
            height={25}
            src="repeat.png"
            width={25}
          />
        </div>
      </div>
    </div>
    <div
      className="react-card-back"
      style={
        Object {
          "WebkitBackfaceVisibility": "hidden",
          "backfaceVisibility": "hidden",
          "height": "100%",
          "left": "0",
          "position": "absolute",
          "top": "0",
          "transform": "rotateY(-180deg)",
          "transformStyle": "preserve-3d",
          "transition": "0.6s",
          "width": "100%",
        }
      }
    >
      <div
        className="text-left card-front card text-white"
        onClick={[Function]}
        style={
          Object {
            "cursor": "pointer",
            "width": "25rem",
          }
        }
      >
        <div
          className="card-body"
        >
          <div
            className="card-title h5"
            style={
              Object {
                "fontWeight": "bold",
              }
            }
          >
            Additional Information
          </div>
          <p>
            <b>
              Name: 
            </b>
             
            DELTA 2 R/B(1)
             
          </p>
          <p>
            <b>
              Number: 
            </b>
             
            20453
             
          </p>
          <p>
            <b>
              Classification: 
            </b>
             
            U
             
          </p>
          <p>
            <b>
              Launch Date: 
            </b>
             
            1990-01-24
             
          </p>
          <p>
            <b>
              Country: 
            </b>
             
            US
             
          </p>
          <p>
            <b>
              Type: 
            </b>
             
            ROCKET BODY
             
          </p>
          <p>
            <b>
              Size: 
            </b>
             
            LARGE
             
          </p>
          <p>
            <b>
              Orbital Period: 
            </b>
             
            96.56
             
          </p>
          <p>
            <b>
              Categories: 
            </b>
             
            {BRIGHTEST}
             
          </p>
          <p>
            <b>
              International Designator: 
            </b>
             
            1990-008B
             
          </p>
        </div>
        <div
          className="footer-front container card-footer"
        >
          <img
            alt="plus icon"
            className="plus-icon"
            height={25}
            src="repeat.png"
            width={25}
          />
        </div>
      </div>
    </div>
  </div>
</div>
`;

exports[`satellites page initializes correctly 1`] = `ShallowWrapper {}`;
